[
{
 "model": "products.product",
 "pk": 1,
 "fields": {
  "name": "Processor AMD Ryzen 5 3600 3.6GHz",
  "price": "5649.00",
  "create_date": "2020-05-15T11:23:18.103Z"
 }
},
{
 "model": "products.product",
 "pk": 2,
 "fields": {
  "name": "Processor HP Intel Xeon E5-2609v3 ML150 Gen9 Kit",
  "price": "9855.00",
  "create_date": "2020-06-15T11:23:58.095Z"
 }
},
{
 "model": "products.product",
 "pk": 3,
 "fields": {
  "name": "Processor Intel Core i5-9400F 2.9Ghz",
  "price": "5216.00",
  "create_date": "2020-06-15T11:24:30.748Z"
 }
},
{
 "model": "products.product",
 "pk": 4,
 "fields": {
  "name": "RAM HyperX DDR4-3200 16Gb",
  "price": "2599.00",
  "create_date": "2020-04-15T11:25:20.116Z"
 }
},
{
 "model": "products.product",
 "pk": 5,
 "fields": {
  "name": "RAM HyperX DDR4-3200 8Gb",
  "price": "1285.00",
  "create_date": "2020-05-25T11:25:29.270Z"
 }
},
{
 "model": "products.product",
 "pk": 6,
 "fields": {
  "name": "Motherboard Asus Prime H310M-R R2.0",
  "price": "1455.00",
  "create_date": "2020-05-12T11:26:12.665Z"
 }
},
{
 "model": "products.product",
 "pk": 7,
 "fields": {
  "name": "Motherboard Asus Prime B450-A",
  "price": "2155.00",
  "create_date": "2020-06-14T11:26:46.766Z"
 }
},
{
 "model": "products.product",
 "pk": 8,
 "fields": {
  "name": "Harddrive Verbatim Store 1Tb",
  "price": "1349.00",
  "create_date": "2020-06-15T11:27:45.194Z"
 }
},
{
 "model": "products.product",
 "pk": 9,
 "fields": {
  "name": "Harddrive Seagate Exos 12Tb",
  "price": "10410.00",
  "create_date": "2020-06-15T11:28:07.545Z"
 }
}
]
